Mountainbike-Tour;28. Februar 2021;35,0;680;2:27;185,8
Nollingen-Adelhausen-Steinen-Brombach-Nollingen;21. Februar 2021;36,9;780;2:35;211,6
Mountainbike-Tour;7. Februar 2021;29,6;500;1:45;155,8
Mountainbike-Tour;5. Februar 2021;19,3;330;1:08;103,9
Mountainbike-Tour;21. November 2020;24,4;510;1:43;136,2
Fahrradtour;13. November 2020;27,9;460;1:39;144,2
Mountainbike-Tour;11. November 2020;26,7;490;1:37;150,6
Mountainbike-Tour;6. November 2020;18,2;290;1:01;96,3
Sissacher Flue;11. Oktober 2020;30,9;530;2:13;143,6
Mountainbike-Tour;12. Juli 2020;20,5;520;1:29;137,8
Mountainbike-Tour;10. Juli 2020;19,2;310;1:06;100,2
Mountainbike-Tour;5. Juli 2020;29,9;580;1:50;174,0
Nollingen - Sunnaberg - Zeiningen - Nollingen;29. Juni 2020;27,4;510;1:39;157,2
Mountainbike-Tour;25. Juni 2020;26,7;470;1:33;150,7
Mountainbike-Tour;21. Juni 2020;29,8;600;1:52;176,3
Mountainbike-Tour;19. Juni 2020;9,38;140;0:31;47,21
Mountainbike-Tour;16. Juni 2020;19,7;320;1:08;102,7
Mountainbike-Tour;11. Juni 2020;19,5;410;1:12;123,0
Mountainbike-Tour;31. Mai 2020;30,5;610;1:53;192,5
Mountainbike-Tour;14. Mai 2020;18,5;240;1:00;82,3
Mountainbike-Tour;3. Mai 2020;46,0;1170;3:53;272,3
Mountainbike-Tour;29. März 2020;25,3;360;1:33;110,1
Mountainbike-Tour;24. März 2020;20,0;270;1:10;89,0
Von Aktuelle Position nach Aktuelle Position;3. Januar 2015;23,3;450;1:34;126,4
